﻿Ign;Team;Kills;Deaths;Assists;Kd;Acs;Matches;FB;FB Win;FB Loss;Region;Rplay;Rwon;Rloss
deigara;9z Team;161;188;92;0.856382979;185;12;19;13;6;LAS;262;124;138
HANLING;9z Team;166;193;74;0.860103627;182;12;26;20;6;LAS;262;124;138
Leazo;9z Team;29;42;14;0.69047619;158;2;2;2;0;LAS;52;24;28
Mizu;9z Team;183;150;24;1.22;245;10;45;37;8;LAS;210;100;110
Puleule;9z Team;173;169;76;1.023668639;190;12;12;8;4;LAS;262;124;138
SUTHER;9z Team;192;186;72;1.032258065;223;12;19;11;8;LAS;262;124;138
Holbreak;EBRO Gaming;136;165;66;0.824242424;177;11;16;11;5;LAS;224;96;128
MatiS;EBRO Gaming;185;167;37;1.107784431;241;11;47;30;17;LAS;224;96;128
shelbyN;EBRO Gaming;125;168;64;0.744047619;156;11;14;7;7;LAS;224;96;128
Sushi;EBRO Gaming;149;162;38;0.919753086;189;11;15;12;3;LAS;224;96;128
Unnsto;EBRO Gaming;112;164;85;0.682926829;162;11;22;14;8;LAS;224;96;128
Delz1k;KRU;139;114;63;1.219298246;197;10;14;12;2;LAS;197;131;66
keznit;KRU;157;114;48;1.377192982;270;9;27;21;6;LAS;175;118;57
Klaus;KRU;145;105;52;1.380952381;201;10;12;12;0;LAS;197;131;66
Mazino;KRU;165;120;71;1.375;229;10;17;14;3;LAS;197;131;66
NagZ;KRU;151;120;41;1.258333333;220;10;44;40;4;LAS;197;131;66
wait;KRU;11;16;1;0.6875;139;1;0;0;0;LAS;22;13;9
adverso;Leviatan;123;109;69;1.128440367;181;10;11;8;3;LAS;199;127;72
kiNgg;Leviatan;168;109;73;1.541284404;233;10;29;22;7;LAS;199;127;72
Melser;Leviatan;158;99;80;1.595959596;219;10;17;16;1;LAS;199;127;72
Tacolilla;Leviatan;165;128;59;1.2890625;233;10;42;35;7;LAS;199;127;72
vaiZ;Leviatan;156;122;51;1.278688525;224;10;26;22;4;LAS;199;127;72
badsitoww;Meta Gaming;126;169;56;0.74556213;190;10;25;18;7;LAS;206;78;128
D1E;Meta Gaming;148;164;42;0.902439024;202;10;18;14;4;LAS;206;78;128
LucasVade;Meta Gaming;145;155;48;0.935483871;202;10;11;6;5;LAS;206;78;128
NicoMachine;Meta Gaming;140;161;62;0.869565217;200;10;14;7;7;LAS;206;78;128
WKN;Meta Gaming;110;157;71;0.700636943;161;10;14;7;7;LAS;206;78;128
DOGAO;Movistar Optix;117;173;42;0.676300578;164;11;11;9;2;LAS;220;98;122
gio;Movistar Optix;130;170;70;0.764705882;168;11;13;8;5;LAS;220;98;122
Tio;Movistar Optix;159;141;57;1.127659574;199;11;17;13;4;LAS;220;98;122
Tuli;Movistar Optix;159;179;54;0.888268156;216;11;31;22;9;LAS;220;98;122
vickt0r;Movistar Optix;162;166;64;0.975903614;218;11;27;19;8;LAS;220;98;122
adi;Border Monsters;124;176;38;0.704545455;169;11;14;9;5;LAN;218;85;122
alca;Border Monsters;146;187;39;0.780748663;202;11;34;19;15;LAN;218;85;122
Josegxbo;Border Monsters;113;164;64;0.68902439;146;11;7;6;1;LAN;218;85;122
nolaN;Border Monsters;142;169;46;0.840236686;185;11;28;16;12;LAN;218;85;122
Theory;Border Monsters;169;165;58;1.024242424;236;11;16;11;5;LAN;218;85;122
BandiCoot;E-Xolos LAZER;157;117;82;1.341880342;189;12;9;6;3;LAN;232;148;122
Daveeys;E-Xolos LAZER;238;141;43;1.687943262;279;12;45;36;9;LAN;232;148;122
Dobsha;E-Xolos LAZER;197;145;38;1.35862069;235;12;41;33;8;LAN;232;148;122
Feniz;E-Xolos LAZER;185;147;77;1.258503401;223;12;23;19;4;LAN;232;148;122
jfoen;E-Xolos LAZER;164;134;74;1.223880597;200;12;20;18;2;LAN;232;148;122
AztKk;FUSION;175;165;71;1.060606061;199;12;19;14;5;LAN;246;128;122
Danielesflo;FUSION;168;161;88;1.043478261;186;12;14;11;3;LAN;246;128;122
HellFull;FUSION;193;160;63;1.20625;226;12;27;19;8;LAN;246;128;122
Jow;FUSION;177;172;68;1.029069767;211;12;23;16;7;LAN;246;128;122
wyz;FUSION;199;178;41;1.117977528;230;12;40;35;5;LAN;246;128;122
ERMAAAK;Infinity Esports;183;244;103;0.75;173;14;22;16;6;LAN;310;148;122
gessito;Infinity Esports;192;239;98;0.80334728;181;14;23;17;6;LAN;310;148;122
Maka;Infinity Esports;202;237;80;0.852320675;195;14;19;16;3;LAN;310;148;122
RAINMAKER;Infinity Esports;252;225;86;1.12;232;14;26;18;8;LAN;310;148;122
Tehx;Infinity Esports;235;232;69;1.012931034;222;14;39;27;12;LAN;310;148;122
BetrayerN;Ryze Gaming;142;151;24;0.940397351;201;10;29;21;8;LAN;196;81;122
ezznap;Ryze Gaming;118;149;51;0.791946309;169;10;13;8;5;LAN;196;81;122
Feels;Ryze Gaming;109;158;37;0.689873418;172;10;27;16;11;LAN;196;81;122
Peloncito;Ryze Gaming;132;147;52;0.897959184;210;10;13;4;9;LAN;196;81;122
rowancy;Ryze Gaming;95;148;43;0.641891892;142;10;14;13;1;LAN;196;81;122
BEAST;Six Karma;179;174;75;1.028735632;183;13;20;14;6;LAN;278;150;122
Clarenz;Six Karma;160;177;105;0.903954802;161;13;9;6;3;LAN;278;150;122
Closer;Six Karma;207;178;49;1.162921348;209;13;27;20;7;LAN;278;150;122
Mited;Six Karma;232;201;87;1.154228856;238;13;38;32;6;LAN;278;150;122
Xander;Six Karma;246;190;51;1.294736842;256;13;65;51;14;LAN;278;150;122
